﻿<html>
  <head>

    <title>Certificate</title>
    </head>
  <body>
  	<div>
	 <div style=" font-family: arial; font-size: 17px; color: #323231;
                    padding: 0 0 7px 7px; line-height: 35px; vertical-align: top;">
                    <span style="font-weight: bold; color: rgb(169, 50, 52); font-size: 42px; text-transform: capitalize;">
                        Dear
                        <%RecipientName%>,</span><br />
                    <span style="display: block; color: rgb(0, 0, 0); font-size: 30px;">
                        <br />
                        Congratulations!!!</span>
                    <p style="color: #606062; font-size: 24px">
                        On having received the
                        <%AwardType%> of Rs. <%Amount%> 
                        from
                        <%GiverHODName%>.
                    </p>
					</div>
					<br>
  <img src='http://www.afsrecognitionportal.com:8081/Template/AttachmentImg/#imgname'>
    </div>

	<div style="padding-left:6px"><p style="color: #606062; font-size: 24px"><a href="http://www.afsrecognitionportal.com:8081">Click Here</a> To Redeem Award From RNR Portal</p></div>

	<div style="padding-left:6px"><p style="color: #606062; font-size: 24px">Regards,<br> Rewards & Recognition Team</p></div>
	
  </body>
</html>


