

*************************************
Error At: 10-05-2018 12:05:4410-05-2018 12:05:44Error at:10-05-2018 12:05:44

*************************************

General Information

Error From Page: GiveECard.aspx
Error Message: Object reference not set to an instance of an object.
Inner Exception: 
Error Source: MM_Rewards
Error Details:    at MM_Rewards.Web_Pages.Rewards.GiveECard.Page_Load(Object sender, EventArgs e) in d:\Anant Ghode\RNR\MM_Rewards\MM_Rewards\Web_Pages\Rewards\GiveECard.aspx.cs:line 68


*************************************
Error At: 10-05-2018 15:19:5110-05-2018 15:19:51Error at:10-05-2018 15:19:51

*************************************

General Information

Error From Page: Budget_Request.aspx
Error Message: Object reference not set to an instance of an object.
Inner Exception: 
Error Source: MM_Rewards
Error Details:    at MM_Rewards.Web_Pages.Rewards.Budget_Request.Page_Load(Object sender, EventArgs e) in d:\Anant Ghode\RNR\MM_Rewards\MM_Rewards\Web_Pages\Rewards\Budget_Request.aspx.cs:line 43
