

*************************************
Error At: 14-10-2019 12:20:1814-10-2019 12:20:18Error at:14-10-2019 12:20:18

*************************************

General Information

Error From Page: GiveECard.aspx
Error Message: Object reference not set to an instance of an object.
Inner Exception: 
Error Source: MM_Rewards
Error Details:    at MM_Rewards.Web_Pages.Rewards.GiveECard.Page_Load(Object sender, EventArgs e) in d:\Anant Ghode\RNR\MM_Rewards\MM_Rewards\Web_Pages\Rewards\GiveECard.aspx.cs:line 74


*************************************
Error At: 14-10-2019 12:48:2014-10-2019 12:48:20Error at:14-10-2019 12:48:20

*************************************

General Information

Error From Page: GiveECard.aspx
Error Message: Object reference not set to an instance of an object.
Inner Exception: 
Error Source: MM_Rewards
Error Details:    at MM_Rewards.Web_Pages.Rewards.GiveECard.Page_Load(Object sender, EventArgs e) in d:\Anant Ghode\RNR\MM_Rewards\MM_Rewards\Web_Pages\Rewards\GiveECard.aspx.cs:line 74
