

*************************************
Error At: 12-06-2018 10:57:1112-06-2018 10:57:11Error at:12-06-2018 10:57:11

*************************************

General Information

Error From Page: HomePage.aspx
Error Message: Object reference not set to an instance of an object.
Inner Exception: 
Error Source: MM_Rewards
Error Details:    at MM_Rewards.Web_Pages.MM_Rewards.Page_Load(Object sender, EventArgs e) in d:\Anant Ghode\RNR\MM_Rewards\MM_Rewards\Web_Pages\MM_Rewards.Master.cs:line 60


*************************************
Error At: 12-06-2018 10:57:3212-06-2018 10:57:32Error at:12-06-2018 10:57:32

*************************************

General Information

Error From Page: HomePage.aspx
Error Message: Object reference not set to an instance of an object.
Inner Exception: 
Error Source: MM_Rewards
Error Details:    at MM_Rewards.Web_Pages.MM_Rewards.Page_Load(Object sender, EventArgs e) in d:\Anant Ghode\RNR\MM_Rewards\MM_Rewards\Web_Pages\MM_Rewards.Master.cs:line 60
