

*************************************
Error At: 22-01-2019 11:30:3122-01-2019 11:30:31Error at:22-01-2019 11:30:31

*************************************

General Information

Error From Page: GiveECard.aspx
Error Message: Object reference not set to an instance of an object.
Inner Exception: 
Error Source: MM_Rewards
Error Details:    at MM_Rewards.Web_Pages.Rewards.GiveECard.Page_Load(Object sender, EventArgs e) in d:\Anant Ghode\RNR\MM_Rewards\MM_Rewards\Web_Pages\Rewards\GiveECard.aspx.cs:line 68
