-- -- -- -- -- -- -- -- -- -- -- -- 
Subject: Salary Redeemtion Request
Date: 10-01-2019 16:48:43, SenderEmailID: RR@MAHINDRA.COM, Sender Name: R R, ReceiverEmalID: CNB@MAHINDRA.COM Receiver: 
-- -- -- -- -- -- -- -- -- -- -- -- 
-- -- -- -- -- -- -- -- -- -- -- -- 
Subject: 
Date: 10-01-2019 16:57:04, SenderEmailID: CnB@mahindra.com, Sender Name: , ReceiverEmalID: RR@mahindra.com Receiver: 
-- -- -- -- -- -- -- -- -- -- -- -- 
