-- -- -- -- -- -- -- -- -- -- -- -- 
Subject: You have been presented with an E-Card!
Date: 02-09-2020 13:01:59, SenderEmailID: r&r@mahindra.com, Sender Name: Khushbu Nehete, ReceiverEmalID: borsra-cont@mahindra.com Receiver: Employee Name
-- -- -- -- -- -- -- -- -- -- -- -- 
-- -- -- -- -- -- -- -- -- -- -- -- 
Subject: You have been presented with an E-Card!
Date: 02-09-2020 13:03:08, SenderEmailID: r&r@mahindra.com, Sender Name: Khushbu Nehete, ReceiverEmalID: borsra-cont@mahindra.com Receiver: Employee Name
-- -- -- -- -- -- -- -- -- -- -- -- 
-- -- -- -- -- -- -- -- -- -- -- -- 
Subject: You have been presented with an E-Card!
Date: 02-09-2020 13:03:46, SenderEmailID: r&r@mahindra.com, Sender Name: Khushbu Nehete, ReceiverEmalID: borsra-cont@mahindra.com Receiver: Employee Name
-- -- -- -- -- -- -- -- -- -- -- -- 
-- -- -- -- -- -- -- -- -- -- -- -- 
Subject: You have been presented with an E-Card!
Date: 02-09-2020 13:05:07, SenderEmailID: r&r@mahindra.com, Sender Name: Khushbu Nehete, ReceiverEmalID: borsra-cont@mahindra.com Receiver: Employee Name
-- -- -- -- -- -- -- -- -- -- -- -- 
-- -- -- -- -- -- -- -- -- -- -- -- 
Subject: You have been presented with an E-Card!
Date: 02-09-2020 14:08:05, SenderEmailID: r&r@mahindra.com, Sender Name: Khushbu Nehete, ReceiverEmalID: borsra-cont@mahindra.com Receiver: Employee Name
-- -- -- -- -- -- -- -- -- -- -- -- 
-- -- -- -- -- -- -- -- -- -- -- -- 
Subject: You have been presented with an E-Card!
Date: 02-09-2020 14:08:39, SenderEmailID: r&r@mahindra.com, Sender Name: Khushbu Nehete, ReceiverEmalID: borsra-cont@mahindra.com Receiver: Employee Name
-- -- -- -- -- -- -- -- -- -- -- -- 
-- -- -- -- -- -- -- -- -- -- -- -- 
Subject: You have been presented with an E-Card!
Date: 02-09-2020 14:09:16, SenderEmailID: r&r@mahindra.com, Sender Name: Khushbu Nehete, ReceiverEmalID: borsra-cont@mahindra.com Receiver: Employee Name
-- -- -- -- -- -- -- -- -- -- -- -- 
-- -- -- -- -- -- -- -- -- -- -- -- 
Subject: You have been presented with an E-Card!
Date: 02-09-2020 14:17:44, SenderEmailID: r&r@mahindra.com, Sender Name: Khushbu Nehete, ReceiverEmalID: borsra-cont@mahindra.com Receiver: Employee Name
-- -- -- -- -- -- -- -- -- -- -- -- 
-- -- -- -- -- -- -- -- -- -- -- -- 
Subject: You have been presented with an E-Card!
Date: 02-09-2020 14:21:51, SenderEmailID: r&r@mahindra.com, Sender Name: Khushbu Nehete, ReceiverEmalID: borsra-cont@mahindra.com Receiver: Employee Name
-- -- -- -- -- -- -- -- -- -- -- -- 
-- -- -- -- -- -- -- -- -- -- -- -- 
Subject: You have been presented with an E-Card!
Date: 02-09-2020 14:22:28, SenderEmailID: r&r@mahindra.com, Sender Name: Khushbu Nehete, ReceiverEmalID: borsra-cont@mahindra.com Receiver: Employee Name
-- -- -- -- -- -- -- -- -- -- -- -- 
-- -- -- -- -- -- -- -- -- -- -- -- 
Subject: You have been presented with an E-Card!
Date: 02-09-2020 14:31:09, SenderEmailID: r&r@mahindra.com, Sender Name: Khushbu Nehete, ReceiverEmalID: borsra-cont@mahindra.com Receiver: Employee Name
-- -- -- -- -- -- -- -- -- -- -- -- 
-- -- -- -- -- -- -- -- -- -- -- -- 
Subject: You have been presented with an E-Card!
Date: 02-09-2020 14:32:02, SenderEmailID: r&r@mahindra.com, Sender Name: Khushbu Nehete, ReceiverEmalID: borsra-cont@mahindra.com Receiver: Employee Name
-- -- -- -- -- -- -- -- -- -- -- -- 
-- -- -- -- -- -- -- -- -- -- -- -- 
Subject: You have been presented with an E-Card!
Date: 02-09-2020 16:42:58, SenderEmailID: r&r@mahindra.com, Sender Name: Khushbu Nehete, ReceiverEmalID: borsra-cont@mahindra.com Receiver: Employee Name
-- -- -- -- -- -- -- -- -- -- -- -- 
-- -- -- -- -- -- -- -- -- -- -- -- 
Subject: You have been presented with an E-Card!
Date: 02-09-2020 16:55:00, SenderEmailID: r&r@mahindra.com, Sender Name: Khushbu Nehete, ReceiverEmalID: borsra-cont@mahindra.com Receiver: Employee Name
-- -- -- -- -- -- -- -- -- -- -- -- 
-- -- -- -- -- -- -- -- -- -- -- -- 
Subject: You have been presented with an E-Card!
Date: 02-09-2020 16:56:29, SenderEmailID: r&r@mahindra.com, Sender Name: Khushbu Nehete, ReceiverEmalID: borsra-cont@mahindra.com Receiver: Employee Name
-- -- -- -- -- -- -- -- -- -- -- -- 
-- -- -- -- -- -- -- -- -- -- -- -- 
Subject: You have been presented with an E-Card!
Date: 02-09-2020 16:56:54, SenderEmailID: r&r@mahindra.com, Sender Name: Khushbu Nehete, ReceiverEmalID: borsra-cont@mahindra.com Receiver: Employee Name
-- -- -- -- -- -- -- -- -- -- -- -- 
-- -- -- -- -- -- -- -- -- -- -- -- 
Subject: You have been presented with an E-Card!
Date: 02-09-2020 16:57:35, SenderEmailID: r&r@mahindra.com, Sender Name: Khushbu Nehete, ReceiverEmalID: borsra-cont@mahindra.com Receiver: Employee Name
-- -- -- -- -- -- -- -- -- -- -- -- 
-- -- -- -- -- -- -- -- -- -- -- -- 
Subject: You have been presented with an E-Card!
Date: 02-09-2020 16:58:16, SenderEmailID: r&r@mahindra.com, Sender Name: Khushbu Nehete, ReceiverEmalID: borsra-cont@mahindra.com Receiver: Employee Name
-- -- -- -- -- -- -- -- -- -- -- -- 
-- -- -- -- -- -- -- -- -- -- -- -- 
Subject: You have been presented with an E-Card!
Date: 02-09-2020 16:59:29, SenderEmailID: r&r@mahindra.com, Sender Name: Khushbu Nehete, ReceiverEmalID: borsra-cont@mahindra.com Receiver: Employee Name
-- -- -- -- -- -- -- -- -- -- -- -- 
-- -- -- -- -- -- -- -- -- -- -- -- 
Subject: You have been presented with an E-Card!
Date: 02-09-2020 17:11:47, SenderEmailID: r&r@mahindra.com, Sender Name: Employee Name, ReceiverEmalID: 211029@MAHINDRA.COM Receiver: Bonita Fernandes
-- -- -- -- -- -- -- -- -- -- -- -- 
-- -- -- -- -- -- -- -- -- -- -- -- 
Subject: You have been presented with an E-Card!
Date: 02-09-2020 17:12:33, SenderEmailID: r&r@mahindra.com, Sender Name: Employee Name, ReceiverEmalID: 211029@MAHINDRA.COM Receiver: Bonita Fernandes
-- -- -- -- -- -- -- -- -- -- -- -- 
-- -- -- -- -- -- -- -- -- -- -- -- 
Subject: You have been presented with an E-Card!
Date: 02-09-2020 17:13:00, SenderEmailID: r&r@mahindra.com, Sender Name: Employee Name, ReceiverEmalID: 211029@MAHINDRA.COM Receiver: Bonita Fernandes
-- -- -- -- -- -- -- -- -- -- -- -- 
