-- -- -- -- -- -- -- -- -- -- -- -- 
Subject: Congratulations!!!
Date: 04-05-2021 17:49:40, SenderEmailID: , Sender Name: Vineet Joshi, ReceiverEmailID: borsra-cont@mahindra.com Receiver: Lucy Varghese
-- -- -- -- -- -- -- -- -- -- -- -- 
-- -- -- -- -- -- -- -- -- -- -- -- 
Subject: Congratulations!!!
Date: 04-05-2021 17:49:40, SenderEmailID: , Sender Name: Vineet Joshi, ReceiverEmailID: borsra-cont@mahindra.com Receiver: Suhas Kulkarni
-- -- -- -- -- -- -- -- -- -- -- -- 
-- -- -- -- -- -- -- -- -- -- -- -- 
Subject: Congratulations!!!
Date: 04-05-2021 18:00:02, SenderEmailID: , Sender Name: Vineet Joshi, ReceiverEmailID: borsra-cont@mahindra.com Receiver: Umesh Agashe
-- -- -- -- -- -- -- -- -- -- -- -- 
-- -- -- -- -- -- -- -- -- -- -- -- 
Subject: Congratulations!!!
Date: 04-05-2021 18:00:02, SenderEmailID: , Sender Name: Vineet Joshi, ReceiverEmailID: borsra-cont@mahindra.com Receiver: Lucy Varghese
-- -- -- -- -- -- -- -- -- -- -- -- 
-- -- -- -- -- -- -- -- -- -- -- -- 
Subject: Congratulations!!!
Date: 04-05-2021 18:00:03, SenderEmailID: , Sender Name: Vineet Joshi, ReceiverEmailID: borsra-cont@mahindra.com Receiver: Suhas Kulkarni
-- -- -- -- -- -- -- -- -- -- -- -- 
-- -- -- -- -- -- -- -- -- -- -- -- 
Subject: Congratulations!!!
Date: 04-05-2021 18:00:04, SenderEmailID: , Sender Name: Vineet Joshi, ReceiverEmailID: borsra-cont@mahindra.com Receiver: T.V. Anilkumar
-- -- -- -- -- -- -- -- -- -- -- -- 
-- -- -- -- -- -- -- -- -- -- -- -- 
Subject: Congratulations!!!
Date: 04-05-2021 18:00:05, SenderEmailID: , Sender Name: Vineet Joshi, ReceiverEmailID: borsra-cont@mahindra.com Receiver: Suhas Kulkarni
-- -- -- -- -- -- -- -- -- -- -- -- 
-- -- -- -- -- -- -- -- -- -- -- -- 
Subject: Congratulations!!!
Date: 04-05-2021 18:00:06, SenderEmailID: , Sender Name: Vineet Joshi, ReceiverEmailID: borsra-cont@mahindra.com Receiver: Arvind Mhatre
-- -- -- -- -- -- -- -- -- -- -- -- 
-- -- -- -- -- -- -- -- -- -- -- -- 
Subject: Congratulations!!!
Date: 04-05-2021 18:02:18, SenderEmailID: 12521, Sender Name: Vineet Joshi, ReceiverEmailID: borsra-cont@mahindra.com Receiver: Anand Arumugam
-- -- -- -- -- -- -- -- -- -- -- -- 
-- -- -- -- -- -- -- -- -- -- -- -- 
Subject: Congratulations!!!
Date: 04-05-2021 18:02:19, SenderEmailID: 12521, Sender Name: Vineet Joshi, ReceiverEmailID: borsra-cont@mahindra.com Receiver: Rahul Jayawant
-- -- -- -- -- -- -- -- -- -- -- -- 
